{
    "index": "lise",
    "nom": "Lise Dellac",
    "style": "Folk",
    "video": "https://www.youtube.com/watch?v=IrkXYm-K68I",
    "audio": {
        "soundcloud": {
            "lien": "https://w.soundcloud.com/player/?url=https%3A//api.soundcloud.com/tracks/234972715&color=%23ff5500&auto_play=false&hide_related=false&show_comments=true&show_user=true&show_reposts=false&show_teaser=true&visual=true"
        }
    },
    "image1": "lise1.jpg",
    "reseaux": {
        "facebook": "https://www.facebook.com/lise.dellac/",
        "youtube": "https://www.youtube.com/channel/UC1gQQBJiuVT9u-HmlojoxHw",
        "soundcloud": "https://soundcloud.com/lise-dellac",
        "website": "http://lisedellac.com/"
    },
    "texte": "Une grande silhouette blonde aux muses masculines : Bob Dylan, Al Stewart, Simon and Garfunkel, Tom Waits... Lise a su puiser l’esprit folk/blues des années soixante/soixante-dix. Ce répertoire, elle le sert avec passion et ne manque jamais une occasion de lui rendre hommage.  Mais qu’on ne s’y trompe pas, son regard reste toujours empreint de modernité. Elle écrit, compose et surprend. Tour à tour engagée, réservée, ou amusante, Lise Dellac sur scène, c’est un enchainement d’émotions, de personnages, de situations… Entourée de trois musiciens, elle nous invite avec simplicité à découvrir une nouvelle musique folk."
}
